Main.cs
AppDelegate.cs
PlacesAutocomplete.cs
PlacesConfig.cs
PlacesHttpProvider.cs
Properties/AssemblyInfo.cs
SQLite_iOS.cs
ScreenCapture_iOS.cs
SRLabelRenderer.cs
TickerBarSocket_iOS.cs
UserNotificationCenterDelegate.cs
FanspickLocalNotification_iOS.cs
ProgressRingRenderer.cs
TabbedPageRenderer.cs
KeyboardRender.cs
Contact_ios.cs
CountriesCodes.cs
CropViewRenderer.cs
KeyboardService.cs
VersionCheck.cs
LineEntryRenderer.cs
IosForceKeyboardDismissalService.cs
GoogleLogin.cs
/var/folders/83/t9kfcnk90yb27rk8lj8vbltr0000gn/T/Xamarin.iOS,Version=v1.0.AssemblyAttributes.cs
